Visualization basics – Communication Science R Book
…
facts_subset <- facts %>% 
  select(fips, area_name, state_abbreviation, 
         population = Pop_2014_count, 
         pop_change = Pop_change_pct,
         over65 = Age_over_65_pct, 
         female = Sex_female_pct,
         white = Race_white_pct,
         college = Pop_college_grad_pct, 
         income = Income_per_capita)
facts_state <- facts_subset %>% 
  filter(is.na(state_abbreviation) & fips != 0) %>% 
  select(-state_abbreviation)
facts_state

# A tibble: 51 × 9
    fips area_name      population pop_change over65 female white college income
   <dbl> <chr>               <dbl>      <dbl>  <dbl>  <dbl> <dbl>   <dbl>  <dbl>
 1  1000 Alabama           4849377        1.4   15.3   51.5  69.7    22.6  23680
 2  2000 Alaska             736732        3.7    9.4   47.4  66.9    27.5  32651
 3  4000 Arizona           6731484        5.3   15.9   50.3  83.7    26.9  25358
 4  5000 Arkansas          2966369        1.7   15.7   50.9  79.7    20.1  22170
 5  6000 California       38802500        4.2   12.9   50.3  73.2    30.7  29527
 6  8000 Colorado          5355866        6.5   12.7   49.8  87.7    37    31109
 7  9000 Connecticut       3596677        0.6   15.5   51.2  81.2    36.5  37892
 8 10000 Delaware           935614        4.2   16.4   51.6  70.8    28.9  29819
 9 11000 District Of C…     658893        9.5   11.3   52.6  43.6    52.4  45290
10 12000 Florida          19893297        5.8   19.1   51.1  77.8    26.4  26236
# ℹ 41 more rows
…
Rows: 113 Columns: 4
── Column specification ────────────────────────────────────────────────────────
Delimiter: ","
chr (4): date, state, party, type

ℹ Use `spec()` to retrieve the full column specification for this data.
ℹ Specify the column types or set `show_col_types = FALSE` to quiet this message.

schedule <- schedule %>% 
  mutate(date = as.Date(date, format="%m/%d/%y"))
schedule

# A tibble: 113 × 4
   date       state          party    type               
   <date>     <chr>          <chr>    <chr>              
 1 2016-02-01 Iowa           Democrat Semi-open caucus   
 2 2016-02-09 New Hampshire  Democrat Semi-closed primary
 3 2016-02-20 Nevada         Democrat Closed caucus      
 4 2016-02-27 South Carolina Democrat Open primary       
 5 2016-03-01 Alabama        Democrat Open primary       
 6 2016-03-01 American Samoa Democrat Closed caucus      
 7 2016-03-01 Arkansas       Democrat Open primary       
 8 2016-03-01 Colorado       Democrat Closed caucus      
 9 2016-03-01 Georgia        Democrat Open primary       
10 2016-03-01 Massachusetts  Democrat Semi-closed primary
# ℹ 103 more rows

# dataset 2: vote share for trump for each state
trump = results_state %>% 
  group_by(state, party) %>% 
  mutate(vote_prop=votes/sum(votes)) %>% 
  filter(candidate=="Donald Trump")
trump

# A tibble: 46 × 5
# Groups:   state, party [46]
   state       party      candidate      votes vote_prop
   <chr>       <chr>      <chr>          <dbl>     <dbl>
 1 Alabama     Republican Donald Trump  371735     0.444
 2 Alaska      Republican Donald Trump    7346     0.335
 3 Arizona     Republican Donald Trump  249916     0.574
 4 Arkansas    Republican Donald Trump  133144     0.336
 5 California  Republican Donald Trump 1174829     0.786
 6 Connecticut Republican Donald Trump  123367     0.591
 7 Delaware    Republican Donald Trump   42472     0.626
 8 Florida     Republican Donald Trump 1077221     0.473
 9 Georgia     Republican Donald Trump  501707     0.393
10 Hawaii      Republican Donald Trump    5677     0.429
# ℹ 36 more rows
…
