Long and Wide data – Communication Science R Book
…
The syntax for calling pivot_longer is as follows: pivot_longer(data, columns, names_to="key_column", values_to="value_column"). The first argument is the data (unless you use pipe notation, as shown below). The second argument, columns, is a list of columns which need to be gathered in a single column. You can list the columns one by one, or specify them as a sequence first:last. The names_to= argument specifies the name of a new column that will hold the names of the observations, i.e. the old column names. In our case, that would be country since the columns refer to countries. The values_to= argument specifies the name of the new column that will hold the values, in our case the top-decile of incomes.

Note that (similar to mutate and other tidyverse functions), the column names don’t need to be quoted as long as they don’t contain spaces or other characters that are invalid in R names.

# as always, you can use either %>% notation or specify the data as first argument. so, the below two commands are equivalent

# using pipe (%>%) notation
income = income_raw %>% pivot_longer(U.S.:Europe, names_to = 'country', values_to = 'income_topdecile')

# without using pipe notation
income = pivot_longer(income_raw, U.S.:Europe, names_to = 'country', values_to = 'income_topdecile')

income

# A tibble: 72 × 3
    Year country income_topdecile
   <dbl> <chr>              <dbl>
 1  1900 U.S.                0.41
 2  1900 U.K.                0.47
 3  1900 Germany             0.45
 4  1900 France              0.46
 5  1900 Sweden              0.46
 6  1900 Europe              0.46
 7  1910 U.S.                0.41
 8  1910 U.K.                0.47
 9  1910 Germany             0.44
10  1910 France              0.47
# ℹ 62 more rows
…
wealth_raw = read_csv(paste(base, "wealth_inequality.csv", sep = "/"))

Rows: 21 Columns: 17
── Column specification ────────────────────────────────────────────────────────
Delimiter: ","
dbl (16): Year, France: top decile, France: top percentile, France: top prom...
lgl  (1): United Kingdom: top promille

ℹ Use `spec()` to retrieve the full column specification for this data.
ℹ Specify the column types or set `show_col_types = FALSE` to quiet this message.

wealth_raw

# A tibble: 21 × 17
    Year `France: top decile` `France: top percentile` `France: top promille`
   <dbl>                <dbl>                    <dbl>                  <dbl>
 1  1810                0.799                    0.456                  0.171
 2  1820                0.818                    0.467                  0.190
 3  1830                0.832                    0.475                  0.171
 4  1840                0.804                    0.460                  0.155
 5  1850                0.824                    0.503                  0.194
 6  1860                0.837                    0.520                  0.183
 7  1870                0.818                    0.504                  0.183
 8  1880                0.846                    0.495                  0.211
 9  1890                0.847                    0.511                  0.202
10  1900                0.873                    0.587                  0.281
# ℹ 11 more rows
# ℹ 13 more variables: `Paris: top percentile` <dbl>,
#   `United Kingdom: top decile` <dbl>, `United Kingdom: top percentile` <dbl>,
#   `United Kingdom: top promille` <lgl>, `United States: top decile` <dbl>,
#   `United States: top percentile` <dbl>, `United States: top promille` <dbl>,
#   `Sweden: top decile` <dbl>, `Sweden: top percentile` <dbl>,
#   `Sweden: top promille` <dbl>, `Europe: top decile` <dbl>, …
…
# you can use either option below:
wealth_raw = mutate(wealth_raw, `United Kingdom: top promille`=as.numeric(`United Kingdom: top promille`))
wealth_raw = select(wealth_raw, -`United Kingdom: top promille`)

Pivot longer (wide to long)

We will tidy this data in three steps. First, we pivot_longer the columns into a single column with all measurements. Then, we separate the country from the measurement level. Finally, we pivot_wider the measurement levels to columns again (since they are measurements on the same observation).

The first step is the same as above: we gather all columns except for the year column into a single column:

wealth = pivot_longer(wealth_raw, -Year, names_to="key", values_to="value")
wealth

# A tibble: 315 × 3
    Year key                             value
   <dbl> <chr>                           <dbl>
 1  1810 France: top decile              0.799
 2  1810 France: top percentile          0.456
 3  1810 France: top promille            0.171
 4  1810 Paris: top percentile           0.537
 5  1810 United Kingdom: top decile      0.829
 6  1810 United Kingdom: top percentile  0.549
 7  1810 United States: top decile       0.58 
 8  1810 United States: top percentile   0.25 
 9  1810 United States: top promille    NA    
10  1810 Sweden: top decile              0.839
# ℹ 305 more rows

Separating columns (splitting one column into two)

The next step is to split the ‘key’ column into two columns, for country and for measurement. This can be done using the separate command, for which you specify the column to split, the new column names, and what separator to split on:

wealth = separate(wealth, key, into = c("country","measurement"), sep=":")
wealth

# A tibble: 315 × 4
    Year country        measurement        value
   <dbl> <chr>          <chr>              <dbl>
 1  1810 France         " top decile"      0.799
 2  1810 France         " top percentile"  0.456
 3  1810 France         " top promille"    0.171
 4  1810 Paris          " top percentile"  0.537
 5  1810 United Kingdom " top decile"      0.829
 6  1810 United Kingdom " top percentile"  0.549
 7  1810 United States  " top decile"      0.58 
 8  1810 United States  " top percentile"  0.25 
 9  1810 United States  " top promille"   NA    
10  1810 Sweden         " top decile"      0.839
# ℹ 305 more rows

The measurement column is quoted in the output because it stars with a space. We could resolve this by specifying sep=": " (i.e. adding the space to the separator). We can also solve this by changing the column after the split with mutate. The code below removes the space using the trimws (trim white space) function:

wealth %>% mutate(measurement = trimws(measurement))

# A tibble: 315 × 4
    Year country        measurement     value
   <dbl> <chr>          <chr>           <dbl>
 1  1810 France         top decile      0.799
 2  1810 France         top percentile  0.456
 3  1810 France         top promille    0.171
 4  1810 Paris          top percentile  0.537
 5  1810 United Kingdom top decile      0.829
 6  1810 United Kingdom top percentile  0.549
 7  1810 United States  top decile      0.58 
 8  1810 United States  top percentile  0.25 
 9  1810 United States  top promille   NA    
10  1810 Sweden         top decile      0.839
# ℹ 305 more rows

We can also use sub to search and replace (substitute) within a column, in this case changing ” top ” into “capital_top_”:

wealth = wealth %>% mutate(measurement = sub(" top ", "capital_top_", measurement))
wealth

# A tibble: 315 × 4
    Year country        measurement             value
   <dbl> <chr>          <chr>                   <dbl>
 1  1810 France         capital_top_decile      0.799
 2  1810 France         capital_top_percentile  0.456
 3  1810 France         capital_top_promille    0.171
 4  1810 Paris          capital_top_percentile  0.537
 5  1810 United Kingdom capital_top_decile      0.829
 6  1810 United Kingdom capital_top_percentile  0.549
 7  1810 United States  capital_top_decile      0.58 
 8  1810 United States  capital_top_percentile  0.25 
 9  1810 United States  capital_top_promille   NA    
10  1810 Sweden         capital_top_decile      0.839
# ℹ 305 more rows

Pivot wider (long to wide)

The wealth data above is now ‘too long’ to be tidy: the measurement for each country is spread over multiple rows, listing the three different measurement levels (decile, percentile, promille). In effect, we want to undo one level of gathering, by spreading the column over multiple columns.

Ths syntax for the spread call is similar to that for pivot_longer: pivot_wider(data, names_from=key_column, values_from=value_column). Before we had the arguments names_to and values_to, to specify the column names of the new stacked (i.e. long format) columns. This time, we have the names_from and values_from arguments to reverse the process. For each unique value in the names_from column a new column will be created, with the corresponding value in the values_from column in the cell.

wealth = pivot_wider(wealth, names_from=measurement, values_from=value)
wealth

# A tibble: 126 × 5
    Year country  capital_top_decile capital_top_percentile capital_top_promille
   <dbl> <chr>                 <dbl>                  <dbl>                <dbl>
 1  1810 France                0.799                  0.456                0.171
 2  1810 Paris                NA                      0.537               NA    
 3  1810 United …              0.829                  0.549               NA    
 4  1810 United …              0.58                   0.25                NA    
 5  1810 Sweden                0.839                  0.559               NA    
 6  1810 Europe                0.822                  0.521               NA    
 7  1820 France                0.818                  0.467                0.190
 8  1820 Paris                NA                      0.590               NA    
 9  1820 United …             NA                     NA                   NA    
10  1820 United …             NA                     NA                   NA    
# ℹ 116 more rows
…
wealth = filter(wealth, !country %in% 'Paris')
income = filter(income, !country %in% 'Germany')

Combining and plotting data

Now, we are finally ready to combine our data sets. One of the advantages of ‘tidying’ the data is that it becomes easier to combine them, since the ‘join keys’ are now the same in both data sets: Year and country. So, we can immediately do an inner join:

inequality = inner_join(income, wealth)

Joining with `by = join_by(Year, country)`

inequality

# A tibble: 60 × 6
    Year country income_topdecile capital_top_decile capital_top_percentile
   <dbl> <chr>              <dbl>              <dbl>                  <dbl>
 1  1900 US                  0.41             NA                     NA    
 2  1900 UK                  0.47             NA                     NA    
 3  1900 France              0.46              0.873                  0.587
 4  1900 Sweden              0.46             NA                     NA    
 5  1900 Europe              0.46             NA                     NA    
 6  1910 US                  0.41              0.811                  0.451
 7  1910 UK                  0.47              0.92                   0.69 
 8  1910 France              0.47              0.885                  0.605
 9  1910 Sweden              0.46              0.882                  0.611
10  1910 Europe              0.46              0.895                  0.635
# ℹ 50 more rows
# ℹ 1 more variable: capital_top_promille <dbl>
…
