Summarizing – Communication Science R Book
…
The functions used in the earlier part on data preparation worked on individual rows. Sometimes, you need to compute properties of groups of rows (cases). This is called aggregation (or summarization) and in tidyverse uses the group_by function followed by either summarize or mutate.

Simple data summarization

First, let’s fire up tidyverse and load the gun polls data used in the earlier example:

library(tidyverse)
url <- "https://raw.githubusercontent.com/fivethirtyeight/data/master/poll-quiz-guns/guns-polls.csv"
d <- read_csv(url) %>% 
  select(-URL) %>% 
  rename(Rep = `Republican Support`, Dem = `Democratic Support`)
d

# A tibble: 57 × 8
   Question     Start   End     Pollster          Population Support   Rep   Dem
   <chr>        <chr>   <chr>   <chr>             <chr>        <dbl> <dbl> <dbl>
 1 age-21       2/20/18 2/23/18 CNN/SSRS          Registere…      72    61    86
 2 age-21       2/27/18 2/28/18 NPR/Ipsos         Adults          82    72    92
 3 age-21       3/1/18  3/4/18  Rasmussen         Adults          67    59    76
 4 age-21       2/22/18 2/26/18 Harris Interacti… Registere…      84    77    92
 5 age-21       3/3/18  3/5/18  Quinnipiac        Registere…      78    63    93
 6 age-21       3/4/18  3/6/18  YouGov            Registere…      72    65    80
 7 age-21       3/1/18  3/5/18  Morning Consult   Registere…      76    72    86
 8 arm-teachers 2/23/18 2/25/18 YouGov/Huffpost   Registere…      41    69    20
 9 arm-teachers 2/20/18 2/23/18 CBS News          Adults          44    68    20
10 arm-teachers 2/27/18 2/28/18 Rasmussen         Adults          43    71    24
# ℹ 47 more rows

Grouping rows

Now, we can use the group_by function to group by, for example, pollster:

d %>% 
  group_by(Question)

# A tibble: 57 × 8
# Groups:   Question [8]
   Question     Start   End     Pollster          Population Support   Rep   Dem
   <chr>        <chr>   <chr>   <chr>             <chr>        <dbl> <dbl> <dbl>
 1 age-21       2/20/18 2/23/18 CNN/SSRS          Registere…      72    61    86
 2 age-21       2/27/18 2/28/18 NPR/Ipsos         Adults          82    72    92
 3 age-21       3/1/18  3/4/18  Rasmussen         Adults          67    59    76
 4 age-21       2/22/18 2/26/18 Harris Interacti… Registere…      84    77    92
 5 age-21       3/3/18  3/5/18  Quinnipiac        Registere…      78    63    93
 6 age-21       3/4/18  3/6/18  YouGov            Registere…      72    65    80
 7 age-21       3/1/18  3/5/18  Morning Consult   Registere…      76    72    86
 8 arm-teachers 2/23/18 2/25/18 YouGov/Huffpost   Registere…      41    69    20
 9 arm-teachers 2/20/18 2/23/18 CBS News          Adults          44    68    20
10 arm-teachers 2/27/18 2/28/18 Rasmussen         Adults          43    71    24
# ℹ 47 more rows
…
Note: As you can see, one of the values has a missing value (NA) for standard deviation. Why?

Using mutate with group_by

The examples above all reduce the number of cases to the number of groups. Another option is to use mutate after a group_by, which allows you to add summary values to the rows themselves.

For example, suppose we wish to see whether a certain poll has a different prediction from the average polling of that question. We can group_by question and then use mutate to calculate the average support:

d2 <- d %>% 
  group_by(Question) %>%
  mutate(avg_support = mean(Support), 
         diff = Support - avg_support)
d2

# A tibble: 57 × 10
# Groups:   Question [8]
   Question     Start  End   Pollster Population Support   Rep   Dem avg_support
   <chr>        <chr>  <chr> <chr>    <chr>        <dbl> <dbl> <dbl>       <dbl>
 1 age-21       2/20/… 2/23… CNN/SSRS Registere…      72    61    86        75.9
 2 age-21       2/27/… 2/28… NPR/Ips… Adults          82    72    92        75.9
 3 age-21       3/1/18 3/4/… Rasmuss… Adults          67    59    76        75.9
 4 age-21       2/22/… 2/26… Harris … Registere…      84    77    92        75.9
 5 age-21       3/3/18 3/5/… Quinnip… Registere…      78    63    93        75.9
 6 age-21       3/4/18 3/6/… YouGov   Registere…      72    65    80        75.9
 7 age-21       3/1/18 3/5/… Morning… Registere…      76    72    86        75.9
 8 arm-teachers 2/23/… 2/25… YouGov/… Registere…      41    69    20        42  
 9 arm-teachers 2/20/… 2/23… CBS News Adults          44    68    20        42  
10 arm-teachers 2/27/… 2/28… Rasmuss… Adults          43    71    24        42  
# ℹ 47 more rows
# ℹ 1 more variable: diff <dbl>
…
