Simple linear regression – Communication Science R Book
…
Regression with categorical independent variable

The independent variable in a regression model can also be categorical. This allows us to include categorical variables in the model, similar to the t-test and ANOVA. Let’s see what this looks like when we predict trust_t1 based on the np_subscription variable, which has the values yes and no to indicate if a person has a newspaper subscription.

We cannot do calculations with the values “yes” and “no”, but we can make this possible by creating a so-called dummy variable. In a dummy variable, we assign a value of 1 to one of the categories, and 0 to the other categories. In our case we’ll assign 1 to the category yes, and 0 to the category no. R can actually do this for us, but we’ll first show you how to do it yourself to understand what’s happening. Here we create a new variable has_subscription that has the value 1 if the person has a subscription, and 0 if they don’t.

d = mutate(d, has_subscription = if_else(np_subscription == "yes", 1, 0))

select(d, np_subscription, has_subscription)

# A tibble: 600 × 2
   np_subscription has_subscription
   <chr>                      <dbl>
 1 no                             0
 2 no                             0
 3 yes                            1
 4 yes                            1
 5 no                             0
 6 no                             0
 7 yes                            1
 8 yes                            1
 9 yes                            1
10 no                             0
# ℹ 590 more rows
…
